…
I will pull data from the API using my `eq.data` function. I will set
the minimum magnitude to -1 and the maximum to 4, to look at smaller
earthquakes. (Magnitude is a measure of the size of an earthquake at its
source). I will set the maximum gap to 180 degrees since the USGS states
that earthquake locations with a gap larger than 180 degrees tend to
have larger location and depth uncertainties. I will not change the
settings for event type since I am primarily interested only in events
classified as earthquakes.

``` r
earthquakes.low <- eq.data(min.mag = -1, max.mag = 4, max.gap = 180)
earthquakes.low
```

    ## # A tibble: 5,097 × 12
    ##    magni…¹ place    time signi…² network code  stati…³ num.o…⁴    rms   gap measu…⁵
    ##      <dbl> <chr>   <dbl>   <int> <chr>   <chr>   <dbl>   <int>  <dbl> <dbl> <chr>  
    ##  1    1.35 14 k… 1.70e12      28 ci      4057…  0.0277      11 0.36     118 ml     
    ##  2    1.87 8 km… 1.70e12      54 hv      7360… NA           18 0.120    129 ml     
    ##  3    3    west… 1.70e12     139 tx      2023…  0           20 0.2       64 ml(tex…
    ##  4    2.29 14 k… 1.70e12      81 hv      7360… NA           41 0.130    173 ml     
    ##  5    0.82 9 km… 1.70e12      10 ci      4057…  0.0358      21 0.39     127 ml     
    ##  6    0.97 2 km… 1.70e12      14 ci      4057…  0.0609      18 0.26      66 ml     
    ##  7    1.92 10 k… 1.70e12      57 ci      4057…  0.0443      46 0.23      53 ml     
    ##  8    0.66 7 km… 1.70e12       7 nc      7394…  0.0118      11 0.01      53 md     
    ##  9    1.82 12 k… 1.70e12      51 hv      7360… NA           35 0.0900   177 md     
    ## 10    1.74 43 k… 1.70e12      47 ci      4057…  0.0690      11 0.2       77 ml     
    ## # … with 5,087 more rows, 1 more variable: event.type <chr>, and abbreviated
    ## #   variable names ¹​magnitude, ²​significance, ³​station.distance, ⁴​num.of.stations,
    ## #   ⁵​measurement.method

I will again pull data from the API using the `eq.data` function but
changing the magnitude settings to be between 4 and 10. All other inputs
will remain the same as above.

``` r
earthquakes.high <- eq.data(min.mag = 4, max.mag = 10, max.gap = 180)
earthquakes.high
```

    ## # A tibble: 881 × 12
    ##    magnit…¹ place    time signi…² network code  stati…³ num.o…⁴   rms   gap measu…⁵
    ##       <dbl> <chr>   <dbl>   <int> <chr>   <chr>   <dbl>   <int> <dbl> <dbl> <chr>  
    ##  1      5   15 k… 1.70e12     434 us      6000…   1.71      160  0.8     16 mww    
    ##  2      4.8 Chag… 1.70e12     354 us      6000…   3.78       48  1.3    112 mb     
    ##  3      4.3 196 … 1.70e12     284 us      6000…   2.41       26  1.13   116 mb     
    ##  4      4.1 5 km… 1.70e12     259 us      6000…   0.661      25  0.71   111 mb     
    ##  5      4   5 km… 1.70e12     253 tx      2023…   0.1        30  0.3     92 ml(tex…
    ##  6      5.1 37 k… 1.70e12     401 us      6000…   5.78      114  0.9     88 mww    
    ##  7      4.1 Juju… 1.70e12     259 us      6000…   1.40       21  0.27   134 ml     
    ##  8      4.4 198 … 1.70e12     298 us      6000…   2.49       24  0.78    81 mb     
    ##  9      4.8 203 … 1.70e12     354 us      6000…   2.53       55  0.78    75 mb     
    ## 10      4.7 30 k… 1.70e12     341 us      6000…   5.80       74  0.63   150 mb     
    ## # … with 871 more rows, 1 more variable: event.type <chr>, and abbreviated
    ## #   variable names ¹​magnitude, ²​significance, ³​station.distance, ⁴​num.of.stations,
    ## #   ⁵​measurement.method
…
Instead of just looking at high and low magnitude earthquake data, I
will use my function`eq.location` to examine earthquakes in Hawaii. I
will specify the latitude 19.74 and longitude -155.84. This is the
latitude and longitude for Hawaii. I will increase the maximum radius to
200km. I am choosing Hawaii for this function since it is a location in
the U.S. known for having a lot of seismic activity.

``` r
eq.Hawaii <- eq.location(latitude = 19.74, longitude = -155.84, max.radius = 200)
eq.Hawaii
```

    ## # A tibble: 527 × 15
    ##    magnitude place    time signi…¹ network code  ids   stati…² num.o…³    rms   gap
    ##        <dbl> <chr>   <dbl>   <int> <chr>   <chr> <chr>   <dbl>   <int>  <dbl> <int>
    ##  1      1.87 8 km… 1.70e12      54 hv      7360… ,hv7…      NA      18 0.120    129
    ##  2      2.29 14 k… 1.70e12      81 hv      7360… ,hv7…      NA      41 0.130    173
    ##  3      1.82 12 k… 1.70e12      51 hv      7360… ,hv7…      NA      35 0.0900   177
    ##  4      1.73 <NA>  1.70e12      46 hv      7360… ,hv7…      NA      13 0.210    169
    ##  5      2.13 9 km… 1.70e12      70 hv      7360… ,hv7…      NA      16 0.11     110
    ##  6      2.14 7 km… 1.70e12      70 hv      7360… ,hv7…      NA      33 0.270     93
    ##  7      2.03 4 km… 1.70e12      63 hv      7360… ,hv7…      NA      46 0.120    158
    ##  8      1.84 11 k… 1.70e12      52 hv      7360… ,hv7…      NA       9 0.340    221
    ##  9      1.86 <NA>  1.70e12      53 hv      7360… ,hv7…      NA      34 0.130    106
    ## 10      1.92 <NA>  1.70e12      57 hv      7360… ,hv7…      NA      34 0.120     98
    ## # … with 517 more rows, 4 more variables: measurement.method <chr>,
    ## #   event.type <chr>, longitude <dbl>, latitude <dbl>, and abbreviated variable
    ## #   names ¹​significance, ²​station.distance, ³​num.of.stations
…
